<svg width="111" height="44" viewBox="0 0 111 44" version="1.1" xmlns="http://www.w3.org/2000/svg" xmlns:xlink="http://www.w3.org/1999/xlink">
<title>PUSH &#209;&#131;&#208;&#178;&#208;&#181;&#208;&#180;&#208;&#190;&#208;&#188;&#208;&#187;&#208;&#181;&#208;&#189;&#208;&#184;&#208;&#181;</title>
<desc>Created using Figma</desc>
<g id="Canvas" transform="translate(-836 -892)">
<g id="PUSH &#209;&#131;&#208;&#178;&#208;&#181;&#208;&#180;&#208;&#190;&#208;&#188;&#208;&#187;&#208;&#181;&#208;&#189;&#208;&#184;&#208;&#181;">
<g id="&#208;&#163;&#208;&#146;&#208;&#149;&#208;&#148;&#208;&#158;&#208;&#156;&#208;&#155;&#208;&#149;&#208;&#157;&#208;&#152;&#208;&#175;">
<use xlink:href="#path0_fill" transform="translate(836 923)" fill="#FFFFFF"/>
</g>
<g id="PUSH">
<use xlink:href="#path1_fill" transform="translate(833.5 883)" fill="#FFFFFF"/>
</g>
</g>
</g>
<defs>
<path id="path0_fill" d="M 2.44399 11.143C 2.25333 11.143 2.08099 11.1173 1.92699 11.066C 1.78033 11.0147 1.67033 10.967 1.59699 10.923L 1.59699 9.526C 1.67766 9.57 1.77299 9.61033 1.88299 9.647C 2.00033 9.67633 2.14333 9.691 2.31199 9.691C 2.83266 9.691 3.14799 9.47467 3.25799 9.042L 0.111992 3.146L 2.04799 3.146L 4.18199 7.238L 5.77699 3.146L 7.58099 3.146L 5.12799 8.91C 4.95199 9.31333 4.77233 9.658 4.58899 9.944C 4.41299 10.2227 4.21499 10.4537 3.99499 10.637C 3.78233 10.813 3.54766 10.9413 3.29099 11.022C 3.04166 11.1027 2.75933 11.143 2.44399 11.143ZM 10.2481 3.146L 13.9441 3.146C 14.3181 3.146 14.6591 3.179 14.9671 3.245C 15.2751 3.311 15.5391 3.421 15.7591 3.575C 15.9791 3.72167 16.1477 3.91967 16.2651 4.169C 16.3897 4.41833 16.4521 4.72633 16.4521 5.093C 16.4521 5.489 16.3604 5.819 16.1771 6.083C 16.0011 6.347 15.7371 6.56333 15.3851 6.732C 15.8691 6.87133 16.2284 7.117 16.4631 7.469C 16.7051 7.81367 16.8261 8.23167 16.8261 8.723C 16.8261 9.119 16.7491 9.46367 16.5951 9.757C 16.4411 10.043 16.2321 10.2777 15.9681 10.461C 15.7114 10.6443 15.4144 10.78 15.0771 10.868C 14.7471 10.956 14.4061 11 14.0541 11L 10.2481 11L 10.2481 3.146ZM 13.8231 9.658C 13.9917 9.658 14.1531 9.64333 14.3071 9.614C 14.4611 9.57733 14.5967 9.52233 14.7141 9.449C 14.8314 9.36833 14.9231 9.262 14.9891 9.13C 15.0624 8.998 15.0991 8.82933 15.0991 8.624C 15.0991 8.22067 14.9854 7.93467 14.7581 7.766C 14.5307 7.59 14.2301 7.502 13.8561 7.502L 11.9751 7.502L 11.9751 9.658L 13.8231 9.658ZM 13.7241 6.325C 14.0321 6.325 14.2851 6.25167 14.4831 6.105C 14.6811 5.95833 14.7801 5.72 14.7801 5.39C 14.7801 5.20667 14.7471 5.05633 14.6811 4.939C 14.6151 4.82167 14.5271 4.73 14.4171 4.664C 14.3071 4.598 14.1787 4.554 14.0321 4.532C 13.8927 4.50267 13.7461 4.488 13.5921 4.488L 11.9751 4.488L 11.9751 6.325L 13.7241 6.325ZM 20.1932 3.146L 26.0672 3.146L 26.0672 4.598L 21.9202 4.598L 21.9202 6.281L 25.7262 6.281L 25.7262 7.623L 21.9202 7.623L 21.9202 9.548L 26.1552 9.548L 26.1552 11L 20.1932 11L 20.1932 3.146ZM 28.855 9.548L 29.515 9.548C 29.7423 9.24 29.9257 8.90633 30.065 8.547C 30.2117 8.18767 30.3217 7.79533 30.395 7.37C 30.4757 6.94467 30.527 6.48267 30.549 5.984C 30.5783 5.48533 30.593 4.94633 30.593 4.367L 30.593 3.146L 36.291 3.146L 36.291 9.548L 37.149 9.548L 37.149 12.793L 35.587 12.793L 35.587 11L 30.417 11L 30.417 12.793L 28.855 12.793L 28.855 9.548ZM 34.564 9.548L 34.564 4.565L 32.243 4.565L 32.243 4.708C 32.243 5.24333 32.2283 5.73833 32.199 6.193C 32.177 6.64767 32.133 7.073 32.067 7.469C 32.0083 7.85767 31.9203 8.22433 31.803 8.569C 31.693 8.90633 31.55 9.23267 31.374 9.548L 34.564 9.548ZM 43.7431 11.176C 43.1344 11.176 42.5917 11.0733 42.1151 10.868C 41.6384 10.6553 41.2351 10.3657 40.9051 9.999C 40.5751 9.63233 40.3221 9.20333 40.1461 8.712C 39.9701 8.21333 39.8821 7.678 39.8821 7.106C 39.8821 6.52667 39.9701 5.984 40.1461 5.478C 40.3221 4.972 40.5751 4.532 40.9051 4.158C 41.2351 3.784 41.6384 3.49067 42.1151 3.278C 42.5917 3.06533 43.1344 2.959 43.7431 2.959C 44.3444 2.959 44.8834 3.06533 45.3601 3.278C 45.8441 3.49067 46.2511 3.784 46.5811 4.158C 46.9111 4.532 47.1641 4.972 47.3401 5.478C 47.5161 5.984 47.6041 6.52667 47.6041 7.106C 47.6041 7.678 47.5161 8.21333 47.3401 8.712C 47.1641 9.20333 46.9111 9.63233 46.5811 9.999C 46.2511 10.3657 45.8441 10.6553 45.3601 10.868C 44.8834 11.0733 44.3444 11.176 43.7431 11.176ZM 43.7431 9.735C 44.1317 9.735 44.4617 9.66167 44.7331 9.515C 45.0044 9.361 45.2244 9.15933 45.3931 8.91C 45.5617 8.66067 45.6827 8.382 45.7561 8.074C 45.8367 7.75867 45.8771 7.436 45.8771 7.106C 45.8771 6.76133 45.8367 6.42767 45.7561 6.105C 45.6827 5.78233 45.5617 5.49633 45.3931 5.247C 45.2244 4.99033 45.0044 4.78867 44.7331 4.642C 44.4617 4.488 44.1317 4.411 43.7431 4.411C 43.3544 4.411 43.0244 4.488 42.7531 4.642C 42.4817 4.78867 42.2617 4.99033 42.0931 5.247C 41.9244 5.49633 41.7997 5.78233 41.7191 6.105C 41.6457 6.42767 41.6091 6.76133 41.6091 7.106C 41.6091 7.436 41.6457 7.75867 41.7191 8.074C 41.7997 8.382 41.9244 8.66067 42.0931 8.91C 42.2617 9.15933 42.4817 9.361 42.7531 9.515C 43.0244 9.66167 43.3544 9.735 43.7431 9.735ZM 50.9846 3.146L 53.4156 3.146L 55.2526 8.547L 55.2746 8.547L 57.0126 3.146L 59.4436 3.146L 59.4436 11L 57.8266 11L 57.8266 5.434L 57.8046 5.434L 55.8796 11L 54.5486 11L 52.6236 5.489L 52.6016 5.489L 52.6016 11L 50.9846 11L 50.9846 3.146ZM 63.2851 11.088C 63.0137 11.088 62.7644 11.044 62.5371 10.956L 62.5371 9.548C 62.5664 9.56267 62.6067 9.57367 62.6581 9.581C 62.7167 9.58833 62.7644 9.592 62.8011 9.592C 63.0797 9.592 63.3071 9.50033 63.4831 9.317C 63.6664 9.13367 63.8057 8.84767 63.9011 8.459C 64.0037 8.07033 64.0734 7.568 64.1101 6.952C 64.1467 6.336 64.1651 5.59533 64.1651 4.73L 64.1651 3.146L 69.8191 3.146L 69.8191 11L 68.1031 11L 68.1031 4.598L 65.8041 4.598C 65.7821 5.50733 65.7491 6.358 65.7051 7.15C 65.6684 7.942 65.5731 8.63133 65.4191 9.218C 65.2651 9.79733 65.0231 10.2557 64.6931 10.593C 64.3631 10.923 63.8937 11.088 63.2851 11.088ZM 73.5389 3.146L 79.4129 3.146L 79.4129 4.598L 75.2659 4.598L 75.2659 6.281L 79.0719 6.281L 79.0719 7.623L 75.2659 7.623L 75.2659 9.548L 79.5009 9.548L 79.5009 11L 73.5389 11L 73.5389 3.146ZM 82.8717 3.146L 84.5987 3.146L 84.5987 6.16L 87.7777 6.16L 87.7777 3.146L 89.5047 3.146L 89.5047 11L 87.7777 11L 87.7777 7.612L 84.5987 7.612L 84.5987 11L 82.8717 11L 82.8717 3.146ZM 93.225 3.146L 94.941 3.146L 94.941 8.591L 94.974 8.591L 97.966 3.146L 99.902 3.146L 99.902 11L 98.186 11L 98.186 5.544L 98.153 5.544L 95.161 11L 93.225 11L 93.225 3.146ZM 105.271 7.898C 104.751 7.766 104.329 7.502 104.006 7.106C 103.691 6.70267 103.533 6.182 103.533 5.544C 103.533 5.126 103.607 4.76667 103.753 4.466C 103.9 4.16533 104.094 3.916 104.336 3.718C 104.586 3.52 104.872 3.377 105.194 3.289C 105.524 3.19367 105.869 3.146 106.228 3.146L 110.078 3.146L 110.078 11L 108.362 11L 108.362 8.041L 107.141 8.041L 105.051 11L 102.895 11L 105.271 7.898ZM 108.362 6.754L 108.362 4.499L 106.657 4.499C 106.474 4.499 106.294 4.51367 106.118 4.543C 105.95 4.565 105.796 4.61633 105.656 4.697C 105.524 4.77033 105.418 4.87667 105.337 5.016C 105.257 5.148 105.216 5.32767 105.216 5.555C 105.216 5.797 105.257 5.995 105.337 6.149C 105.425 6.303 105.539 6.42767 105.678 6.523C 105.818 6.611 105.979 6.67333 106.162 6.71C 106.346 6.73933 106.536 6.754 106.734 6.754L 108.362 6.754Z"/>
<path id="path1_fill" d="M 8.91027 22.636L 8.91027 14.504L 13.5463 14.504C 14.2303 14.504 14.8889 14.5547 15.5223 14.656C 16.1556 14.7573 16.7129 14.96 17.1943 15.264C 17.6756 15.5427 18.0556 15.948 18.3343 16.48C 18.6383 17.012 18.7903 17.7087 18.7903 18.57C 18.7903 19.4313 18.6383 20.128 18.3343 20.66C 18.0556 21.192 17.6756 21.61 17.1943 21.914C 16.7129 22.1927 16.1556 22.3827 15.5223 22.484C 14.8889 22.5853 14.2303 22.636 13.5463 22.636L 8.91027 22.636ZM 2.94427 9.868L 2.94427 37L 8.91027 37L 8.91027 27.272L 15.1803 27.272C 16.8776 27.272 18.3216 27.0313 19.5123 26.55C 20.7029 26.0433 21.6656 25.3847 22.4003 24.574C 23.1603 23.7633 23.7049 22.8387 24.0343 21.8C 24.3889 20.736 24.5663 19.6593 24.5663 18.57C 24.5663 17.4553 24.3889 16.3787 24.0343 15.34C 23.7049 14.3013 23.1603 13.3767 22.4003 12.566C 21.6656 11.7553 20.7029 11.1093 19.5123 10.628C 18.3216 10.1213 16.8776 9.868 15.1803 9.868L 2.94427 9.868ZM 54.318 26.74L 54.318 9.868L 48.352 9.868L 48.352 26.74C 48.352 28.7667 47.9466 30.2613 47.136 31.224C 46.3253 32.1613 44.856 32.63 42.728 32.63C 41.512 32.63 40.5366 32.4653 39.802 32.136C 39.0926 31.7813 38.5353 31.338 38.13 30.806C 37.7246 30.2487 37.4586 29.6153 37.332 28.906C 37.2053 28.1967 37.142 27.4747 37.142 26.74L 37.142 9.868L 31.176 9.868L 31.176 26.74C 31.176 30.4387 32.1766 33.1747 34.178 34.948C 36.2046 36.7213 39.0546 37.608 42.728 37.608C 46.3506 37.608 49.188 36.7213 51.24 34.948C 53.292 33.1493 54.318 30.4133 54.318 26.74ZM 66.522 27.994L 60.746 27.994C 60.7207 29.666 61.0247 31.11 61.658 32.326C 62.2913 33.542 63.14 34.5427 64.204 35.328C 65.2933 36.1133 66.5347 36.6833 67.928 37.038C 69.3467 37.418 70.8033 37.608 72.298 37.608C 74.1473 37.608 75.7687 37.3927 77.162 36.962C 78.5807 36.5313 79.7587 35.936 80.696 35.176C 81.6587 34.3907 82.3806 33.466 82.862 32.402C 83.3433 31.338 83.584 30.1853 83.584 28.944C 83.584 27.424 83.2546 26.1827 82.596 25.22C 81.9627 24.232 81.2027 23.4467 80.316 22.864C 79.4293 22.2813 78.53 21.8633 77.618 21.61C 76.7313 21.3313 76.0347 21.1413 75.528 21.04C 73.8307 20.6093 72.45 20.2547 71.386 19.976C 70.3473 19.6973 69.524 19.4187 68.916 19.14C 68.3333 18.8613 67.9407 18.5573 67.738 18.228C 67.5353 17.8987 67.434 17.468 67.434 16.936C 67.434 16.3533 67.5607 15.872 67.814 15.492C 68.0673 15.112 68.384 14.7953 68.764 14.542C 69.1693 14.2887 69.6127 14.1113 70.094 14.01C 70.5753 13.9087 71.0567 13.858 71.538 13.858C 72.2727 13.858 72.944 13.9213 73.552 14.048C 74.1853 14.1747 74.7427 14.39 75.224 14.694C 75.7053 14.998 76.0853 15.416 76.364 15.948C 76.668 16.48 76.8453 17.1513 76.896 17.962L 82.672 17.962C 82.672 16.3913 82.368 15.0613 81.76 13.972C 81.1773 12.8573 80.3793 11.9453 79.366 11.236C 78.3527 10.5267 77.1873 10.02 75.87 9.716C 74.578 9.38667 73.2227 9.222 71.804 9.222C 70.588 9.222 69.372 9.38667 68.156 9.716C 66.94 10.0453 65.8507 10.552 64.888 11.236C 63.9253 11.92 63.14 12.7813 62.532 13.82C 61.9493 14.8333 61.658 16.0367 61.658 17.43C 61.658 18.6713 61.886 19.7353 62.342 20.622C 62.8233 21.4833 63.444 22.2053 64.204 22.788C 64.964 23.3707 65.8253 23.852 66.788 24.232C 67.7507 24.5867 68.7387 24.8907 69.752 25.144C 70.74 25.4227 71.7153 25.676 72.678 25.904C 73.6407 26.132 74.502 26.398 75.262 26.702C 76.022 27.006 76.63 27.386 77.086 27.842C 77.5673 28.298 77.808 28.8933 77.808 29.628C 77.808 30.312 77.6307 30.882 77.276 31.338C 76.9213 31.7687 76.478 32.1107 75.946 32.364C 75.414 32.6173 74.844 32.7947 74.236 32.896C 73.628 32.972 73.058 33.01 72.526 33.01C 71.7407 33.01 70.9807 32.9213 70.246 32.744C 69.5113 32.5413 68.8653 32.25 68.308 31.87C 67.776 31.4647 67.3453 30.9453 67.016 30.312C 66.6867 29.6787 66.522 28.906 66.522 27.994ZM 90.1337 9.868L 90.1337 37L 96.0997 37L 96.0997 25.296L 107.082 25.296L 107.082 37L 113.048 37L 113.048 9.868L 107.082 9.868L 107.082 20.28L 96.0997 20.28L 96.0997 9.868L 90.1337 9.868Z"/>
</defs>
</svg>
